{
  "ctfTitle": "My CTF",
  "checkInterval": 20,
  "checksInRound": 2,
  "totalRounds": 100,
  "flagLifeLength": 5,
  "queueTtl": 10,
  "gameStartTime": "2020-09-10T00:22:00",
  "freezeStartTime": "2020-11-01T00:00:00",
  "scoreHardness": 10,
  "scoreInflation": false,
  "teams": [
    {
      "name": "Team 1",
      "ip": "127.0.0.1",
      "token": "1111",
      "icon": "default.png"
    },
    {
      "name": "Team 2",
      "ip": "127.0.0.2",
      "token": "2222",
      "icon": "default.png"
    },
    {
      "name": "Team 3",
      "ip": "127.0.0.3",
      "token": "3333",
      "icon": "default.png"
    },
    {
      "name": "Team 4",
      "ip": "127.0.0.4",
      "token": "4444",
      "icon": "default.png"
    },
    {
      "name": "Team 5",
      "ip": "127.0.0.5",
      "token": "5555",
      "icon": "special.svg"
    }
  ],
  "services": [
    {
      "name": "Test service 1",
      "initialScore": 1000,
      "firstBloodBonus": 50,
      "checkFunctionalityScript": "/checkers/test1.sh",
      "pushFlagScript": "/checkers/test1.sh",
      "pullFlagScript": "/checkers/test1.sh"
    }
  ]
}